…
## Create a few contingecy tables for comparison. The first contingency table looks at the Provinces in Australia, the second table looks at the dates for Australia and the Provinces for Australia. The third table looks at deaths in the United States. Contingency tables are useful for summarization of categorical variables - I don’t think I had the best data to work with here to make my contingency tables but an example of a 2-way contingency table would be table two.

``` r
Table1<-table(AustraliaConfirmed$Province)  
Table2<-table(AustraliaConfirmed$Date, AustraliaConfirmed$Province)
Table4<-table(AustraliaConfirmed$Country)
```

## Some numerical summaries for quantitative variables at each setting of some of the categorial variables. I utilized the mean and median as well as the group\_by and summarise functions.

``` r
Summary2 %>% group_by(Confirmed) %>% summarise(avg=mean(Confirmed), med=median(Confirmed))  
```

    ## # A tibble: 596 × 3
    ##    Confirmed   avg   med
    ##        <int> <dbl> <dbl>
    ##  1         1     1     1
    ##  2         2     2     2
    ##  3         5     5     5
    ##  4         6     6     6
    ##  5         8     8     8
    ##  6        11    11    11
    ##  7        12    12    12
    ##  8        13    13    13
    ##  9        14    14    14
    ## 10        16    16    16
    ## # … with 586 more rows

``` r
Summary2 %>% group_by(Deaths) %>% summarise(avg=mean(Deaths), med=median(Deaths))  
```

    ## # A tibble: 585 × 3
    ##    Deaths   avg   med
    ##     <int> <dbl> <dbl>
    ##  1      0     0     0
    ##  2      1     1     1
    ##  3      6     6     6
    ##  4      7     7     7
    ##  5     11    11    11
    ##  6     12    12    12
    ##  7     14    14    14
    ##  8     17    17    17
    ##  9     21    21    21
    ## 10     22    22    22
    ## # … with 575 more rows

``` r
Summary3 %>% group_by(Survived) %>% summarise(avg=mean(Survived), med=median(Survived))  
```

    ## # A tibble: 596 × 3
    ##    Survived   avg   med
    ##       <int> <dbl> <dbl>
    ##  1        1     1     1
    ##  2        2     2     2
    ##  3        5     5     5
    ##  4        6     6     6
    ##  5        8     8     8
    ##  6       11    11    11
    ##  7       12    12    12
    ##  8       13    13    13
    ##  9       14    14    14
    ## 10       16    16    16
    ## # … with 586 more rows

``` r
Summary3 %>% group_by(Active) %>% summarise(avg=mean(Active), med=median(Active)) 
```

    ## # A tibble: 594 × 3
    ##    Active   avg   med
    ##     <int> <dbl> <dbl>
    ##  1      1     1     1
    ##  2      2     2     2
    ##  3      5     5     5
    ##  4      6     6     6
    ##  5      8     8     8
    ##  6      9     9     9
    ##  7     10    10    10
    ##  8     11    11    11
    ##  9     12    12    12
    ## 10     17    17    17
    ## # … with 584 more rows

``` r
Summary3 %>% group_by(Recovered) %>% summarise(avg=mean(Recovered), med=median(Recovered))
```

    ## # A tibble: 278 × 3
    ##    Recovered   avg   med
    ##        <int> <dbl> <dbl>
    ##  1         0     0     0
    ##  2         3     3     3
    ##  3         5     5     5
    ##  4         6     6     6
    ##  5         7     7     7
    ##  6         8     8     8
    ##  7        12    12    12
    ##  8        17    17    17
    ##  9       105   105   105
    ## 10       121   121   121
    ## # … with 268 more rows
…
